{
    "name": "Directory",
    "alias": "directory",
    "description": "",
    "keywords": [],
    "order": 0,
    "providers": [
        "BureauHouse\\Modules\\Directory\\Providers\\DirectoryServiceProvider"
    ],
    "aliases": {},
    "files": [],
    "requires": []
}
